[
  {
    "spanish": "Bonito",
    "english": "Beautiful",
    "english_alt": "Pretty"
  },
  {
    "spanish": "Feo",
    "english": "Ugly"
  },
  {
    "spanish": "Caro",
    "english": "Expensive"
  },
  {
    "spanish": "Barato",
    "english": "Cheap"
  },
  {
    "spanish": "Inteligente",
    "english": "Intelligent"
  },
  {
    "spanish": "Aburrido",
    "english": "Boring"
  },
  {
    "spanish": "Interesante",
    "english": "Interesting"
  },
  {
    "spanish": "Malo",
    "english": "Bad"
  },
  {
    "spanish": "Fácil",
    "english": "Easy"
  },
  {
    "spanish": "Pobre",
    "english": "Poor"
  },
  {
    "spanish": "Largo",
    "english": "Long"
  },
  {
    "spanish": "Guapo",
    "english": "Good looking"
  },
  {
    "spanish": "Alto",
    "english": "Tall",
    "english_alt": "High"
  },
  {
    "spanish": "Grande",
    "english": "Big"
  },
  {
    "spanish": "Jóven",
    "english": "Young"
  },
  {
    "spanish": "Viejo",
    "english": "Old"
  },
  {
    "spanish": "Rápido",
    "english": "Fast"
  },
  {
    "spanish": "Lento",
    "english": "Slow"
  },
  {
    "spanish": "Divertido",
    "english": "Fun"
  },
  {
    "spanish": "Tonto",
    "english": "Stupid"
  },
  {
    "spanish": "Simpático",
    "english": "Nice",
    "english_alt": "Kind"
  },
  {
    "spanish": "Bueno",
    "english": "Good"
  },
  {
    "spanish": "Nuevo",
    "english": "New"
  },
  {
    "spanish": "Difícil",
    "english": "Difficult"
  },
  {
    "spanish": "Rico",
    "english": "Rich"
  },
  {
    "spanish": "Corto",
    "english": "Short length"
  },
  {
    "spanish": "Horrible",
    "english": "Horrible"
  },
  {
    "spanish": "Bajo",
    "english": "Short height"
  },
  {
    "spanish": "Pequeño",
    "english": "Small"
  },
  {
    "spanish": "Delicioso",
    "english": "Delicious"
  }
]