[
  {
    "spanish": "Los amigos",
    "english": "The friends"
  },
  {
    "spanish": "Los tienes",
    "english": "The shops"
  },
  {
    "spanish": "Los estudiantes",
    "english": "The students"
  },
  {
    "spanish": "Las países",
    "english": "The countries"
  },
  {
    "spanish": "Los mercados",
    "english": "The markets"
  },
  {
    "spanish": "Los restaurantes",
    "english": "The restaurants"
  },
  {
    "spanish": "Los bolígrafos",
    "english": "The pens"
  },
  {
    "spanish": "Los aeropuertos",
    "english": "The airports"
  },
  {
    "spanish": "Los clases",
    "english": "The classes"
  },
  {
    "spanish": "Los jardínes",
    "english": "The gardens"
  },
  {
    "spanish": "Las escuelas",
    "english": "The schools"
  },
  {
    "spanish": "Las semanas",
    "english": "The weeks"
  },
  {
    "spanish": "Los trabajos",
    "english": "The jobs"
  },
  {
    "spanish": "Los jamónes",
    "english": "The hams"
  },
  {
    "spanish": "Los carnes",
    "english": "The meats"
  },
  {
    "spanish": "Los centros",
    "english": "The centres"
  },
  {
    "spanish": "Los profesores",
    "english": "The professors"
  },
  {
    "spanish": "Los camareros",
    "english": "The waiters"
  },
  {
    "spanish": "Las personas",
    "english": "The people"
  },
  {
    "spanish": "Las piscinas",
    "english": "The swimming pools"
  },
  {
    "spanish": "Las excursiónes",
    "english": "The excursions"
  },
  {
    "spanish": "Las sopas",
    "english": "The soups"
  },
  {
    "spanish": "Las días",
    "english": "The days"
  },
  {
    "spanish": "Los monumentos",
    "english": "The monuments"
  },
  {
    "spanish": "Las familias",
    "english": "The families"
  },
  {
    "spanish": "Los niños",
    "english": "The children"
  },
  {
    "spanish": "Las cuentas",
    "english": "The bills"
  },
  {
    "spanish": "Los trenes",
    "english": "The trains"
  },
  {
    "spanish": "Los pescados",
    "english": "The fishes"
  },
  {
    "spanish": "Los pollos",
    "english": "The chickens"
  },
  {
    "spanish": "Me gusta",
    "english": "I like"
  },
  {
    "spanish": "No me gusta",
    "english": "I don't like"
  },
  {
    "spanish": "Me gustan",
    "english": "I like (plural)",
    "force": "english"
  },
  {
    "spanish": "No me gustan",
    "english": "I don't like (plural)",
    "force": "english"
  },
  {
    "spanish": "Dónde está",
    "english": "Where is"
  },
  {
    "spanish": "Dónde están",
    "english": "Where are"
  },
  {
    "spanish": "Está",
    "english": "It is"
  },
  {
    "spanish": "Están",
    "english": "They are"
  },
  {
    "spanish": "¿Cuánto cuesta?",
    "english": "How much is?"
  },
  {
    "spanish": "¿Cuánto cuestan?",
    "english": "How much are?"
  }
]